-------------------------------------------------------------------------------
Test set: Selenium.JoinTournamentTest
-------------------------------------------------------------------------------
Tests run: 1, Failures: 0, Errors: 0, Skipped: 0, Time elapsed: 24.937 sec
